<?xml version="1.0" encoding="UTF-8"?>
<svg width="54px" height="54px" viewBox="0 0 54 54" version="1.1" xmlns="http://www.w3.org/2000/svg" xmlns:xlink="http://www.w3.org/1999/xlink">
    <!-- Generator: Sketch 57.1 (83088) - https://sketch.com -->
    <title>Interior_design_advice</title>
    <desc>Created with Sketch.</desc>
    <g id="Services" stroke="none" stroke-width="1" fill="none" fill-rule="evenodd">
        <g id="1440_services_menu" transform="translate(-241.000000, -826.000000)" fill="#005C9C">
            <g id="Interior_design_advice" transform="translate(240.000000, 825.000000)">
                <g transform="translate(1.000000, 1.000000)">
                    <path d="M8,47.922 C5.568,47.566 2,45.943 2,42 L2,25 C2,21.564 4.592,20 7,20 L29,20 C31.43,20 34,22.57 34,25 L34,30 L36,30 L36,25 C36,21.467 32.532,18 29,18 L7,18 C3.521,18 0,20.404 0,25 L0,42 C0,47.518 5.263,50 9,50 C9.553,50 10,49.553 10,49 L10,28 L8,28 L8,47.922" id="Fill-1"></path>
                    <polygon id="Fill-2" points="20 30 26 30 26 28 20 28"></polygon>
                    <path d="M18,2 C21.309,2 24,4.691 24,8 C24,11.309 21.309,14 18,14 C14.691,14 12,11.309 12,8 C12,4.691 14.691,2 18,2 Z M18,16 C22.411,16 26,12.411 26,8 C26,3.589 22.411,0 18,0 C13.589,0 10,3.589 10,8 C10,12.411 13.589,16 18,16 L18,16 Z" id="Fill-3"></path>
                    <path d="M52,48 C52,50.43 50.43,52 48,52 L32,52 C29.57,52 28,50.43 28,48 L28,36.618 L34.553,39.895 C34.691,39.964 34.845,40 35,40 L48,40 C50.43,40 52,41.57 52,44 L52,48 Z M48,38 L35.236,38 L27.447,34.106 C27.137,33.951 26.77,33.966 26.475,34.149 C26.18,34.332 26,34.653 26,35 L26,48 C26,51.532 28.468,54 32,54 L48,54 C51.532,54 54,51.532 54,48 L54,44 C54,40.468 51.532,38 48,38 L48,38 Z" id="Fill-4"></path>
                    <polygon id="Fill-5" points="32 45 48 45 48 43 32 43"></polygon>
                    <polygon id="Fill-6" points="32 49 48 49 48 47 32 47"></polygon>
                </g>
            </g>
        </g>
    </g>
</svg>