<?xml version="1.0" encoding="UTF-8"?>
<svg width="54px" height="38px" viewBox="0 0 54 38" version="1.1" xmlns="http://www.w3.org/2000/svg" xmlns:xlink="http://www.w3.org/1999/xlink">
    <!-- Generator: Sketch 57.1 (83088) - https://sketch.com -->
    <title>Finance_options Copy 3</title>
    <desc>Created with Sketch.</desc>
    <g id="Services" stroke="none" stroke-width="1" fill="none" fill-rule="evenodd">
        <g id="1440_services_menu" transform="translate(-241.000000, -1107.000000)" fill="#005C9C">
            <g id="Finance_options-Copy" transform="translate(240.000000, 1097.000000)">
                <g transform="translate(1.000000, 10.000000)">
                    <path d="M2,6 L44,6 L44,2 L2,2 L2,6 Z M2,12 L44,12 L44,16 L46,16 L46,1 C46,0.448 45.553,0 45,0 L1,0 C0.447,0 0,0.448 0,1 L0,31 C0,31.553 0.447,32 1,32 L26,32 L26,30 L2,30 L2,12 L2,12 Z" id="Fill-1"></path>
                    <path d="M44,36 C43.472,36 42.953,35.945 42.444,35.845 C44.012,34.384 45,32.308 45,30 C45,26.119 42.222,22.878 38.55,22.153 C40.016,20.787 41.951,20 44,20 C48.411,20 52,23.589 52,28 C52,32.411 48.411,36 44,36 Z M31,30 C31,26.691 33.691,24 37,24 C40.309,24 43,26.691 43,30 C43,33.309 40.309,36 37,36 C33.691,36 31,33.309 31,30 Z M44,18 C40.813,18 37.85,19.523 35.967,22.074 C32.043,22.584 29,25.939 29,30 C29,34.411 32.589,38 37,38 C38.177,38 39.292,37.738 40.299,37.279 C41.477,37.75 42.717,38 44,38 C49.514,38 54,33.514 54,28 C54,22.486 49.514,18 44,18 L44,18 Z" id="Fill-2"></path>
                </g>
            </g>
        </g>
    </g>
</svg>