<?xml version="1.0" encoding="UTF-8"?>
<svg width="56px" height="32px" viewBox="0 0 56 32" version="1.1" xmlns="http://www.w3.org/2000/svg" xmlns:xlink="http://www.w3.org/1999/xlink">
    <!-- Generator: Sketch 57.1 (83088) - https://sketch.com -->
    <title>Fill 1 Copy 3</title>
    <desc>Created with Sketch.</desc>
    <g id="Services" stroke="none" stroke-width="1" fill="none" fill-rule="evenodd">
        <g id="1440_services_menu" transform="translate(-960.000000, -1253.000000)" fill="#005C9C">
            <g id="Store" transform="translate(960.000000, 1241.000000)">
                <path d="M29,42 L40,42 L40,28 L29,28 L29,42 Z M16,42 L27,42 L27,28 L16,28 L16,42 Z M4,14 L52,14 L52,42 L42,42 L42,27 C42,26.447 41.553,26 41,26 L15,26 C14.447,26 14,26.447 14,27 L14,42 L4,42 L4,14 Z M54,42 L54,13 C54,12.448 53.553,12 53,12 L3,12 C2.447,12 2,12.448 2,13 L2,42 L0,42 L0,44 L56,44 L56,42 L54,42 L54,42 Z"></path>
            </g>
        </g>
    </g>
</svg>