<?xml version="1.0" encoding="UTF-8"?>
<svg width="56px" height="54px" viewBox="0 0 56 54" version="1.1" xmlns="http://www.w3.org/2000/svg" xmlns:xlink="http://www.w3.org/1999/xlink">
    <!-- Generator: Sketch 57.1 (83088) - https://sketch.com -->
    <title>Online Copy 2</title>
    <desc>Created with Sketch.</desc>
    <g id="Services" stroke="none" stroke-width="1" fill="none" fill-rule="evenodd">
        <g id="1440_services_menu" transform="translate(-600.000000, -1386.000000)" fill="#005C9C">
            <g id="Installation" transform="translate(600.000000, 1385.000000)">
                <g transform="translate(0.000000, 1.000000)">
                    <path d="M8,47.922 C5.568,47.566 2,45.943 2,42 L2,25 C2,21.564 4.592,20 7,20 L29,20 C31.43,20 34,22.57 34,25 L34,28 L36,28 L36,25 C36,21.467 32.532,18 29,18 L7,18 C3.521,18 0,20.404 0,25 L0,42 C0,47.518 5.263,50 9,50 C9.553,50 10,49.553 10,49 L10,28 L8,28 L8,47.922" id="Fill-1"></path>
                    <polygon id="Fill-2" points="20 30 26 30 26 28 20 28"></polygon>
                    <path d="M18,2 C21.309,2 24,4.691 24,8 C24,11.309 21.309,14 18,14 C14.691,14 12,11.309 12,8 C12,4.691 14.691,2 18,2 Z M18,16 C22.411,16 26,12.411 26,8 C26,3.589 22.411,0 18,0 C13.589,0 10,3.589 10,8 C10,12.411 13.589,16 18,16 L18,16 Z" id="Fill-3"></path>
                    <path d="M51.054,35.609 C48.771,37.219 45.596,37.275 43.255,35.782 C42.913,35.563 42.473,35.573 42.142,35.808 L19.691,51.609 L17.396,48.379 L39.846,32.577 C40.18,32.343 40.337,31.93 40.244,31.533 C39.599,28.759 40.68,25.914 42.998,24.284 C44.474,23.245 46.329,22.81 48.142,23.077 L45.776,24.742 C45.518,24.923 45.36,25.216 45.352,25.532 L45.213,30.49 C45.201,30.936 45.483,31.335 45.907,31.471 L50.649,32.993 C50.947,33.088 51.274,33.038 51.531,32.858 L53.883,31.201 C53.555,32.959 52.554,34.556 51.054,35.609 Z M55.963,29.122 C55.93,28.767 55.71,28.456 55.386,28.306 C55.062,28.156 54.684,28.19 54.391,28.396 L50.786,30.937 L47.233,29.796 L47.337,26.089 L50.983,23.522 C51.277,23.315 51.438,22.967 51.403,22.609 C51.37,22.252 51.146,21.94 50.819,21.792 C49.669,21.274 48.38,21 47.093,21 C45.192,21 43.379,21.57 41.848,22.648 C39.046,24.617 37.646,27.961 38.166,31.314 L15.425,47.322 C15.207,47.475 15.06,47.708 15.015,47.971 C14.97,48.232 15.03,48.502 15.185,48.719 L18.638,53.579 C18.833,53.854 19.141,54 19.454,54 C19.653,54 19.854,53.94 20.028,53.817 L42.767,37.813 C44.075,38.515 45.538,38.883 47.037,38.883 C48.896,38.883 50.684,38.316 52.205,37.245 C54.814,35.411 56.254,32.299 55.963,29.122 L55.963,29.122 Z" id="Fill-4"></path>
                </g>
            </g>
        </g>
    </g>
</svg>